{
 "docs": [
  {
   "_id": "663120ad2283ab4d2b9744d0",
   "title": "Alpinestars Levels Green Hat",
   "description": "Descripcion de Alpinestars Levels Green Hat",
   "price": 39.99,
   "img": "https://www.thehelmetwarehouse.com.au/image/cache/catalog/LIFESTYLE/LEVELS-GREEN-200x200.jpg",
   "code": "tjgq0476",
   "category": "gorras",
   "stock": 1059,
   "status": true,
   "thumbnails": [
    "https://www.thehelmetwarehouse.com.au/image/cache/catalog/LIFESTYLE/LEVELS-GREEN-200x200.jpg",
    "https://www.thehelmetwarehouse.com.au/image/cache/catalog/LIFESTYLE/LEVELS-GREEN-200x200.jpg",
    "https://www.thehelmetwarehouse.com.au/image/cache/catalog/LIFESTYLE/LEVELS-GREEN-200x200.jpg",
    "https://www.thehelmetwarehouse.com.au/image/cache/catalog/LIFESTYLE/LEVELS-GREEN-200x200.jpg"
   ]
  },
  {
   "_id": "663120ad2283ab4d2b9744cd",
   "title": "Alpinestars Neo Ageless WP Tech Black Hat",
   "description": "Descripcion de Alpinestars Neo Ageless WP Tech Black Hat",
   "price": 39.99,
   "img": "https://www.thehelmetwarehouse.com.au/image/cache/catalog/LIFESTYLE/NEOAGELESS-BLK-200x200.jpg",
   "code": "nvii6257",
   "category": "gorras",
   "stock": 560,
   "status": true,
   "thumbnails": [
    "https://www.thehelmetwarehouse.com.au/image/cache/catalog/LIFESTYLE/NEOAGELESS-BLK-200x200.jpg",
    "https://www.thehelmetwarehouse.com.au/image/cache/catalog/LIFESTYLE/NEOAGELESS-BLK-200x200.jpg",
    "https://www.thehelmetwarehouse.com.au/image/cache/catalog/LIFESTYLE/NEOAGELESS-BLK-200x200.jpg",
    "https://www.thehelmetwarehouse.com.au/image/cache/catalog/LIFESTYLE/NEOAGELESS-BLK-200x200.jpg"
   ]
  },
  {
   "_id": "663120ad2283ab4d2b9744d1",
   "title": "Alpinestars Heritage Blaze Navy Hat",
   "description": "Descripcion de Alpinestars Heritage Blaze Navy Hat",
   "price": 39.99,
   "img": "https://www.thehelmetwarehouse.com.au/image/cache/catalog/LIFESTYLE/HERITAGE-BLAZE-NAVY-200x200.jpg",
   "code": "vwci1967",
   "category": "gorras",
   "stock": 169,
   "status": true,
   "thumbnails": [
    "https://www.thehelmetwarehouse.com.au/image/cache/catalog/LIFESTYLE/HERITAGE-BLAZE-NAVY-200x200.jpg",
    "https://www.thehelmetwarehouse.com.au/image/cache/catalog/LIFESTYLE/HERITAGE-BLAZE-NAVY-200x200.jpg",
    "https://www.thehelmetwarehouse.com.au/image/cache/catalog/LIFESTYLE/HERITAGE-BLAZE-NAVY-200x200.jpg",
    "https://www.thehelmetwarehouse.com.au/image/cache/catalog/LIFESTYLE/HERITAGE-BLAZE-NAVY-200x200.jpg"
   ]
  },
  {
   "_id": "663120ad2283ab4d2b9744ce",
   "title": "Alpinestars Linear Red Hat",
   "description": "Descripcion de Alpinestars Linear Red Hat",
   "price": 39.99,
   "img": "https://www.thehelmetwarehouse.com.au/image/cache/catalog/LIFESTYLE/LINEAR-RED-200x200.jpg",
   "code": "ztsw0852",
   "category": "gorras",
   "stock": 1257,
   "status": true,
   "thumbnails": [
    "https://www.thehelmetwarehouse.com.au/image/cache/catalog/LIFESTYLE/LINEAR-RED-200x200.jpg",
    "https://www.thehelmetwarehouse.com.au/image/cache/catalog/LIFESTYLE/LINEAR-RED-200x200.jpg",
    "https://www.thehelmetwarehouse.com.au/image/cache/catalog/LIFESTYLE/LINEAR-RED-200x200.jpg",
    "https://www.thehelmetwarehouse.com.au/image/cache/catalog/LIFESTYLE/LINEAR-RED-200x200.jpg"
   ]
  },
  {
   "_id": "663120ad2283ab4d2b9744cc",
   "title": "Alpinestars ESO Tech Grey Hat",
   "description": "Descripcion de Alpinestars ESO Tech Grey Hat",
   "price": 44.99,
   "img": "https://www.thehelmetwarehouse.com.au/image/cache/catalog/LIFESTYLE/ESO-TECH-GREY-200x200.jpg",
   "code": "vqic4279",
   "category": "gorras",
   "stock": 1291,
   "status": true,
   "thumbnails": [
    "https://www.thehelmetwarehouse.com.au/image/cache/catalog/LIFESTYLE/ESO-TECH-GREY-200x200.jpg",
    "https://www.thehelmetwarehouse.com.au/image/cache/catalog/LIFESTYLE/ESO-TECH-GREY-200x200.jpg",
    "https://www.thehelmetwarehouse.com.au/image/cache/catalog/LIFESTYLE/ESO-TECH-GREY-200x200.jpg",
    "https://www.thehelmetwarehouse.com.au/image/cache/catalog/LIFESTYLE/ESO-TECH-GREY-200x200.jpg"
   ]
  },
  {
   "_id": "663120ad2283ab4d2b9744cb",
   "title": "Alpinestars ESO Tech Maroon Hat",
   "description": "Descripcion de Alpinestars ESO Tech Maroon Hat",
   "price": 44.99,
   "img": "https://www.thehelmetwarehouse.com.au/image/cache/catalog/LIFESTYLE/ESO-TECH-MAROON-200x200.jpg",
   "code": "wjjq7927",
   "category": "gorras",
   "stock": 1415,
   "status": true,
   "thumbnails": [
    "https://www.thehelmetwarehouse.com.au/image/cache/catalog/LIFESTYLE/ESO-TECH-MAROON-200x200.jpg",
    "https://www.thehelmetwarehouse.com.au/image/cache/catalog/LIFESTYLE/ESO-TECH-MAROON-200x200.jpg",
    "https://www.thehelmetwarehouse.com.au/image/cache/catalog/LIFESTYLE/ESO-TECH-MAROON-200x200.jpg",
    "https://www.thehelmetwarehouse.com.au/image/cache/catalog/LIFESTYLE/ESO-TECH-MAROON-200x200.jpg"
   ]
  },
  {
   "_id": "663120ad2283ab4d2b9744ca",
   "title": "Alpinestars ESO Tech Military Hat",
   "description": "Descripcion de Alpinestars ESO Tech Military Hat",
   "price": 44.99,
   "img": "https://www.thehelmetwarehouse.com.au/image/cache/catalog/LIFESTYLE/ESO-TECH-MILITARY-200x200.jpg",
   "code": "wgdm5309",
   "category": "gorras",
   "stock": 913,
   "status": true,
   "thumbnails": [
    "https://www.thehelmetwarehouse.com.au/image/cache/catalog/LIFESTYLE/ESO-TECH-MILITARY-200x200.jpg",
    "https://www.thehelmetwarehouse.com.au/image/cache/catalog/LIFESTYLE/ESO-TECH-MILITARY-200x200.jpg",
    "https://www.thehelmetwarehouse.com.au/image/cache/catalog/LIFESTYLE/ESO-TECH-MILITARY-200x200.jpg",
    "https://www.thehelmetwarehouse.com.au/image/cache/catalog/LIFESTYLE/ESO-TECH-MILITARY-200x200.jpg"
   ]
  },
  {
   "_id": "663120ad2283ab4d2b974555",
   "title": "Shoei V-480 Peak ",
   "description": "Descripcion de Shoei V-480 Peak ",
   "price": 49.95,
   "img": "https://www.thehelmetwarehouse.com.au/image/cache/catalog/SHOEI/EX%20ZERO/1118735-200x200.jpg",
   "code": "lnid8817",
   "category": "visores cascos",
   "stock": 937,
   "status": true,
   "thumbnails": [
    "https://www.thehelmetwarehouse.com.au/image/cache/catalog/SHOEI/EX%20ZERO/1118735-200x200.jpg",
    "https://www.thehelmetwarehouse.com.au/image/cache/catalog/SHOEI/EX%20ZERO/1118735-200x200.jpg",
    "https://www.thehelmetwarehouse.com.au/image/cache/catalog/SHOEI/EX%20ZERO/1118735-200x200.jpg",
    "https://www.thehelmetwarehouse.com.au/image/cache/catalog/SHOEI/EX%20ZERO/1118735-200x200.jpg"
   ]
  },
  {
   "_id": "663120ad2283ab4d2b974556",
   "title": "Oneal Sierra Tint External Visor",
   "description": "Descripcion de Oneal Sierra Tint External Visor",
   "price": 49.95,
   "img": "https://www.thehelmetwarehouse.com.au/image/cache/placeholder-200x200.png",
   "code": "jaln6704",
   "category": "visores cascos",
   "stock": 1174,
   "status": true,
   "thumbnails": [
    "https://www.thehelmetwarehouse.com.au/image/cache/placeholder-200x200.png",
    "https://www.thehelmetwarehouse.com.au/image/cache/placeholder-200x200.png",
    "https://www.thehelmetwarehouse.com.au/image/cache/placeholder-200x200.png",
    "https://www.thehelmetwarehouse.com.au/image/cache/placeholder-200x200.png"
   ]
  },
  {
   "_id": "663120ad2283ab4d2b97455b",
   "title": "Arai VAS-V PRO PINLOCK- CLEAR",
   "description": "Descripcion de Arai VAS-V PRO PINLOCK- CLEAR",
   "price": 49.95,
   "img": "https://www.thehelmetwarehouse.com.au/image/cache/catalog/ARAI/VISORS/ARAI-PINLOCK-200x200.png",
   "code": "iuax5884",
   "category": "visores cascos",
   "stock": 87,
   "status": true,
   "thumbnails": [
    "https://www.thehelmetwarehouse.com.au/image/cache/catalog/ARAI/VISORS/ARAI-PINLOCK-200x200.png",
    "https://www.thehelmetwarehouse.com.au/image/cache/catalog/ARAI/VISORS/ARAI-PINLOCK-200x200.png",
    "https://www.thehelmetwarehouse.com.au/image/cache/catalog/ARAI/VISORS/ARAI-PINLOCK-200x200.png",
    "https://www.thehelmetwarehouse.com.au/image/cache/catalog/ARAI/VISORS/ARAI-PINLOCK-200x200.png"
   ]
  },
  {
   "_id": "663120ad2283ab4d2b97455a",
   "title": "Bell Clear Pinlock DKS133",
   "description": "Descripcion de Bell Clear Pinlock DKS133",
   "price": 49.95,
   "img": "https://www.thehelmetwarehouse.com.au/image/cache/catalog/BELL/BELL%20PINLOCK-200x200.jpg",
   "code": "tnoz0007",
   "category": "visores cascos",
   "stock": 1159,
   "status": true,
   "thumbnails": [
    "https://www.thehelmetwarehouse.com.au/image/cache/catalog/BELL/BELL%20PINLOCK-200x200.jpg",
    "https://www.thehelmetwarehouse.com.au/image/cache/catalog/BELL/BELL%20PINLOCK-200x200.jpg",
    "https://www.thehelmetwarehouse.com.au/image/cache/catalog/BELL/BELL%20PINLOCK-200x200.jpg",
    "https://www.thehelmetwarehouse.com.au/image/cache/catalog/BELL/BELL%20PINLOCK-200x200.jpg"
   ]
  },
  {
   "_id": "663120ad2283ab4d2b974559",
   "title": "LS2 Blue Iridium Suits FF353 FF800 Visor",
   "description": "Descripcion de LS2 Blue Iridium Suits FF353 FF800 Visor",
   "price": 49.95,
   "img": "https://www.thehelmetwarehouse.com.au/image/cache/catalog/LS2/ACCESSORIES/LS2-FF320-STREAM-FF353-RAPID-FF800-STORM-BLUE-IRIDIUM-VISOR-200x200.JPG",
   "code": "eezg5639",
   "category": "visores cascos",
   "stock": 779,
   "status": true,
   "thumbnails": [
    "https://www.thehelmetwarehouse.com.au/image/cache/catalog/LS2/ACCESSORIES/LS2-FF320-STREAM-FF353-RAPID-FF800-STORM-BLUE-IRIDIUM-VISOR-200x200.JPG",
    "https://www.thehelmetwarehouse.com.au/image/cache/catalog/LS2/ACCESSORIES/LS2-FF320-STREAM-FF353-RAPID-FF800-STORM-BLUE-IRIDIUM-VISOR-200x200.JPG",
    "https://www.thehelmetwarehouse.com.au/image/cache/catalog/LS2/ACCESSORIES/LS2-FF320-STREAM-FF353-RAPID-FF800-STORM-BLUE-IRIDIUM-VISOR-200x200.JPG",
    "https://www.thehelmetwarehouse.com.au/image/cache/catalog/LS2/ACCESSORIES/LS2-FF320-STREAM-FF353-RAPID-FF800-STORM-BLUE-IRIDIUM-VISOR-200x200.JPG"
   ]
  },
  {
   "_id": "663120ad2283ab4d2b974557",
   "title": "LS2 Silver Iridium Suits FF353 FF800 Visor",
   "description": "Descripcion de LS2 Silver Iridium Suits FF353 FF800 Visor",
   "price": 49.95,
   "img": "https://www.thehelmetwarehouse.com.au/image/cache/catalog/LS2/ACCESSORIES/LS2-FF320-STREAM-FF353-RAPID-FF800-STORM-SILVER-IRIDIUM-VISOR-200x200.JPG",
   "code": "kwfn1704",
   "category": "visores cascos",
   "stock": 880,
   "status": true,
   "thumbnails": [
    "https://www.thehelmetwarehouse.com.au/image/cache/catalog/LS2/ACCESSORIES/LS2-FF320-STREAM-FF353-RAPID-FF800-STORM-SILVER-IRIDIUM-VISOR-200x200.JPG",
    "https://www.thehelmetwarehouse.com.au/image/cache/catalog/LS2/ACCESSORIES/LS2-FF320-STREAM-FF353-RAPID-FF800-STORM-SILVER-IRIDIUM-VISOR-200x200.JPG",
    "https://www.thehelmetwarehouse.com.au/image/cache/catalog/LS2/ACCESSORIES/LS2-FF320-STREAM-FF353-RAPID-FF800-STORM-SILVER-IRIDIUM-VISOR-200x200.JPG",
    "https://www.thehelmetwarehouse.com.au/image/cache/catalog/LS2/ACCESSORIES/LS2-FF320-STREAM-FF353-RAPID-FF800-STORM-SILVER-IRIDIUM-VISOR-200x200.JPG"
   ]
  },
  {
   "_id": "663120ad2283ab4d2b974558",
   "title": "LS2 Dark Tint Suits FF353 FF800 Visor",
   "description": "Descripcion de LS2 Dark Tint Suits FF353 FF800 Visor",
   "price": 49.95,
   "img": "https://www.thehelmetwarehouse.com.au/image/cache/catalog/LS2/ACCESSORIES/LS2-FF320-STREAM-FF353-RAPID-FF800-STORM-DARK-TINT-VISOR-200x200.JPG",
   "code": "vwoz3610",
   "category": "visores cascos",
   "stock": 274,
   "status": true,
   "thumbnails": [
    "https://www.thehelmetwarehouse.com.au/image/cache/catalog/LS2/ACCESSORIES/LS2-FF320-STREAM-FF353-RAPID-FF800-STORM-DARK-TINT-VISOR-200x200.JPG",
    "https://www.thehelmetwarehouse.com.au/image/cache/catalog/LS2/ACCESSORIES/LS2-FF320-STREAM-FF353-RAPID-FF800-STORM-DARK-TINT-VISOR-200x200.JPG",
    "https://www.thehelmetwarehouse.com.au/image/cache/catalog/LS2/ACCESSORIES/LS2-FF320-STREAM-FF353-RAPID-FF800-STORM-DARK-TINT-VISOR-200x200.JPG",
    "https://www.thehelmetwarehouse.com.au/image/cache/catalog/LS2/ACCESSORIES/LS2-FF320-STREAM-FF353-RAPID-FF800-STORM-DARK-TINT-VISOR-200x200.JPG"
   ]
  },
  {
   "_id": "663120ad2283ab4d2b9744c9",
   "title": "Alpinestars Ageless Delta Black Hat",
   "description": "Descripcion de Alpinestars Ageless Delta Black Hat",
   "price": 49.99,
   "img": "https://www.thehelmetwarehouse.com.au/image/cache/catalog/LIFESTYLE/AGELESS-DELTA-BLK-200x200.jpg",
   "code": "vjhn3256",
   "category": "gorras",
   "stock": 312,
   "status": true,
   "thumbnails": [
    "https://www.thehelmetwarehouse.com.au/image/cache/catalog/LIFESTYLE/AGELESS-DELTA-BLK-200x200.jpg",
    "https://www.thehelmetwarehouse.com.au/image/cache/catalog/LIFESTYLE/AGELESS-DELTA-BLK-200x200.jpg",
    "https://www.thehelmetwarehouse.com.au/image/cache/catalog/LIFESTYLE/AGELESS-DELTA-BLK-200x200.jpg",
    "https://www.thehelmetwarehouse.com.au/image/cache/catalog/LIFESTYLE/AGELESS-DELTA-BLK-200x200.jpg"
   ]
  },
  {
   "_id": "663120ad2283ab4d2b9744c8",
   "title": "Alpinestars Ageless Delta Grey Hat",
   "description": "Descripcion de Alpinestars Ageless Delta Grey Hat",
   "price": 49.99,
   "img": "https://www.thehelmetwarehouse.com.au/image/cache/catalog/LIFESTYLE/AGELESS-DELTA-GREY-200x200.jpg",
   "code": "ritq4836",
   "category": "gorras",
   "stock": 769,
   "status": true,
   "thumbnails": [
    "https://www.thehelmetwarehouse.com.au/image/cache/catalog/LIFESTYLE/AGELESS-DELTA-GREY-200x200.jpg",
    "https://www.thehelmetwarehouse.com.au/image/cache/catalog/LIFESTYLE/AGELESS-DELTA-GREY-200x200.jpg",
    "https://www.thehelmetwarehouse.com.au/image/cache/catalog/LIFESTYLE/AGELESS-DELTA-GREY-200x200.jpg",
    "https://www.thehelmetwarehouse.com.au/image/cache/catalog/LIFESTYLE/AGELESS-DELTA-GREY-200x200.jpg"
   ]
  },
  {
   "_id": "663120ad2283ab4d2b9744c7",
   "title": "Alpinestars Ageless Delta Military Hat",
   "description": "Descripcion de Alpinestars Ageless Delta Military Hat",
   "price": 49.99,
   "img": "https://www.thehelmetwarehouse.com.au/image/cache/catalog/LIFESTYLE/AGELESS-DELTA-MILITARY-200x200.jpg",
   "code": "okrm4250",
   "category": "gorras",
   "stock": 825,
   "status": true,
   "thumbnails": [
    "https://www.thehelmetwarehouse.com.au/image/cache/catalog/LIFESTYLE/AGELESS-DELTA-MILITARY-200x200.jpg",
    "https://www.thehelmetwarehouse.com.au/image/cache/catalog/LIFESTYLE/AGELESS-DELTA-MILITARY-200x200.jpg",
    "https://www.thehelmetwarehouse.com.au/image/cache/catalog/LIFESTYLE/AGELESS-DELTA-MILITARY-200x200.jpg",
    "https://www.thehelmetwarehouse.com.au/image/cache/catalog/LIFESTYLE/AGELESS-DELTA-MILITARY-200x200.jpg"
   ]
  },
  {
   "_id": "663120ad2283ab4d2b974468",
   "title": "Ixon RS Slicker Black Gloves",
   "description": "Descripcion de Ixon RS Slicker Black Gloves",
   "price": 54.95,
   "img": "https://www.thehelmetwarehouse.com.au/image/cache/catalog/IXON/GLOVES/MENS/RS_slicker_noir-200x200.jpg",
   "code": "sxes5354",
   "category": "guantes",
   "stock": 1394,
   "status": true,
   "thumbnails": [
    "https://www.thehelmetwarehouse.com.au/image/cache/catalog/IXON/GLOVES/MENS/RS_slicker_noir-200x200.jpg",
    "https://www.thehelmetwarehouse.com.au/image/cache/catalog/IXON/GLOVES/MENS/RS_slicker_noir-200x200.jpg",
    "https://www.thehelmetwarehouse.com.au/image/cache/catalog/IXON/GLOVES/MENS/RS_slicker_noir-200x200.jpg",
    "https://www.thehelmetwarehouse.com.au/image/cache/catalog/IXON/GLOVES/MENS/RS_slicker_noir-200x200.jpg"
   ]
  },
  {
   "_id": "663120ad2283ab4d2b974467",
   "title": "Alpinestars Reef Gloves",
   "description": "Descripcion de Alpinestars Reef Gloves",
   "price": 56.99,
   "img": "https://www.thehelmetwarehouse.com.au/image/cache/catalog/ALPS/GLOVES/3569020-1119-fr_reef-glove-web-200x200.jpg",
   "code": "meef7108",
   "category": "guantes",
   "stock": 1232,
   "status": true,
   "thumbnails": [
    "https://www.thehelmetwarehouse.com.au/image/cache/catalog/ALPS/GLOVES/3569020-1119-fr_reef-glove-web-200x200.jpg",
    "https://www.thehelmetwarehouse.com.au/image/cache/catalog/ALPS/GLOVES/3569020-1119-fr_reef-glove-web-200x200.jpg",
    "https://www.thehelmetwarehouse.com.au/image/cache/catalog/ALPS/GLOVES/3569020-1119-fr_reef-glove-web-200x200.jpg",
    "https://www.thehelmetwarehouse.com.au/image/cache/catalog/ALPS/GLOVES/3569020-1119-fr_reef-glove-web-200x200.jpg"
   ]
  },
  {
   "_id": "663120ad2283ab4d2b974466",
   "title": "Alpinestars Reef Ladies Gloves",
   "description": "Descripcion de Alpinestars Reef Ladies Gloves",
   "price": 56.99,
   "img": "https://www.thehelmetwarehouse.com.au/image/cache/catalog/ALPS/GLOVES/3569020-1119-fr_reef-glove-web-200x200.jpg",
   "code": "vrjc3671",
   "category": "guantes",
   "stock": 1183,
   "status": true,
   "thumbnails": [
    "https://www.thehelmetwarehouse.com.au/image/cache/catalog/ALPS/GLOVES/3569020-1119-fr_reef-glove-web-200x200.jpg",
    "https://www.thehelmetwarehouse.com.au/image/cache/catalog/ALPS/GLOVES/3569020-1119-fr_reef-glove-web-200x200.jpg",
    "https://www.thehelmetwarehouse.com.au/image/cache/catalog/ALPS/GLOVES/3569020-1119-fr_reef-glove-web-200x200.jpg",
    "https://www.thehelmetwarehouse.com.au/image/cache/catalog/ALPS/GLOVES/3569020-1119-fr_reef-glove-web-200x200.jpg"
   ]
  },
  {
   "_id": "663120ad2283ab4d2b974464",
   "title": "Five Globe Evo Black Gloves ",
   "description": "Descripcion de Five Globe Evo Black Gloves ",
   "price": 59.95,
   "img": "https://www.thehelmetwarehouse.com.au/image/cache/catalog/FIVE/2023%20NEW/five-globe-evo-black-mens-gloves-200x200.jpg",
   "code": "sflc1118",
   "category": "guantes",
   "stock": 585,
   "status": true,
   "thumbnails": [
    "https://www.thehelmetwarehouse.com.au/image/cache/catalog/FIVE/2023%20NEW/five-globe-evo-black-mens-gloves-200x200.jpg",
    "https://www.thehelmetwarehouse.com.au/image/cache/catalog/FIVE/2023%20NEW/five-globe-evo-black-mens-gloves-200x200.jpg",
    "https://www.thehelmetwarehouse.com.au/image/cache/catalog/FIVE/2023%20NEW/five-globe-evo-black-mens-gloves-200x200.jpg",
    "https://www.thehelmetwarehouse.com.au/image/cache/catalog/FIVE/2023%20NEW/five-globe-evo-black-mens-gloves-200x200.jpg"
   ]
  },
  {
   "_id": "663120ad2283ab4d2b974553",
   "title": "Nitro N501 DVS Blue Iridium Visor",
   "description": "Descripcion de Nitro N501 DVS Blue Iridium Visor",
   "price": 59.95,
   "img": "https://www.thehelmetwarehouse.com.au/image/cache/catalog/NITRO/VISORS/nitro-501-dvs-iridium-blue-visor-200x200.jpg",
   "code": "vsjs8136",
   "category": "visores cascos",
   "stock": 1045,
   "status": true,
   "thumbnails": [
    "https://www.thehelmetwarehouse.com.au/image/cache/catalog/NITRO/VISORS/nitro-501-dvs-iridium-blue-visor-200x200.jpg",
    "https://www.thehelmetwarehouse.com.au/image/cache/catalog/NITRO/VISORS/nitro-501-dvs-iridium-blue-visor-200x200.jpg",
    "https://www.thehelmetwarehouse.com.au/image/cache/catalog/NITRO/VISORS/nitro-501-dvs-iridium-blue-visor-200x200.jpg",
    "https://www.thehelmetwarehouse.com.au/image/cache/catalog/NITRO/VISORS/nitro-501-dvs-iridium-blue-visor-200x200.jpg"
   ]
  },
  {
   "_id": "663120ad2283ab4d2b974552",
   "title": "Nitro N501 DVS Gold Iridium Visor",
   "description": "Descripcion de Nitro N501 DVS Gold Iridium Visor",
   "price": 59.95,
   "img": "https://www.thehelmetwarehouse.com.au/image/cache/catalog/NITRO/VISORS/nitro-501-dvs-iridium-silver-visor-200x200.jpg",
   "code": "ykun7103",
   "category": "visores cascos",
   "stock": 331,
   "status": true,
   "thumbnails": [
    "https://www.thehelmetwarehouse.com.au/image/cache/catalog/NITRO/VISORS/nitro-501-dvs-iridium-silver-visor-200x200.jpg",
    "https://www.thehelmetwarehouse.com.au/image/cache/catalog/NITRO/VISORS/nitro-501-dvs-iridium-silver-visor-200x200.jpg",
    "https://www.thehelmetwarehouse.com.au/image/cache/catalog/NITRO/VISORS/nitro-501-dvs-iridium-silver-visor-200x200.jpg",
    "https://www.thehelmetwarehouse.com.au/image/cache/catalog/NITRO/VISORS/nitro-501-dvs-iridium-silver-visor-200x200.jpg"
   ]
  },
  {
   "_id": "663120ad2283ab4d2b974554",
   "title": "N100.5 Pinlock Clear",
   "description": "Descripcion de N100.5 Pinlock Clear",
   "price": 59.95,
   "img": "https://www.thehelmetwarehouse.com.au/image/cache/catalog/NOLAN/N100.5%20PINLOCK-200x200.JPG",
   "code": "cggh4715",
   "category": "visores cascos",
   "stock": 211,
   "status": true,
   "thumbnails": [
    "https://www.thehelmetwarehouse.com.au/image/cache/catalog/NOLAN/N100.5%20PINLOCK-200x200.JPG",
    "https://www.thehelmetwarehouse.com.au/image/cache/catalog/NOLAN/N100.5%20PINLOCK-200x200.JPG",
    "https://www.thehelmetwarehouse.com.au/image/cache/catalog/NOLAN/N100.5%20PINLOCK-200x200.JPG",
    "https://www.thehelmetwarehouse.com.au/image/cache/catalog/NOLAN/N100.5%20PINLOCK-200x200.JPG"
   ]
  }
 ],
 "totalDocs": 628,
 "limit": 24,
 "totalPages": 27,
 "page": 2,
 "pagingCounter": 25,
 "hasPrevPage": true,
 "hasNextPage": true,
 "prevPage": 1,
 "nextPage": 3
}